Progetto Metodi finanziari
…
partecipate non sono utili a spiegare il successo del sud-isole italia Per provincia per il sud per capire meglio il fenomeno

data_prov_1 <- dati_finali %>% 
              filter(Macroregione_NUTS==c("IS","SU"))
data_prov <- data_prov_1 %>% 
             group_by(Sede_provincia) %>% 
             summarise(redditivit=mean(RC1),solidit = mean(RC2),count=n())

data_prov <- data_prov %>% 
            arrange(desc(count))
data_prov

## # A tibble: 24 x 4
##    Sede_provincia redditivit solidit count
##    <chr>                <dbl>    <dbl> <int>
##  1 Napoli             0.251   -0.0508     18
##  2 Catania            0.591   -0.236      10
##  3 Cagliari          -0.00767  0.00668     7
##  4 Salerno            0.264    0.785       7
##  5 Bari               0.187    0.206       6
##  6 Cosenza           -0.281    0.134       6
##  7 Palermo            0.0886   0.549       6
##  8 Brindisi           0.950   -0.581       3
##  9 Caserta            0.0157  -0.527       3
## 10 L'Aquila          -0.362    1.20        3
## # ... with 14 more rows
…
